Test_VSCode/2bitregister/test_bench.vcd
$date
  Sun Feb 27 16:03:38 2022
$end
$version
  GHDL v0
$end
$timescale
  1 fs
$end
$scope module standard $end
$upscope $end
$scope module std_logic_1164 $end
$upscope $end
$scope module std_logic_arith $end
$upscope $end
$scope module test_bench $end
$var reg 1 ! s_clk $end
$var reg 1 " s_d0 $end
$var reg 1 # s_d1 $end
$var reg 1 $ s_load $end
$var reg 1 % s_res $end
$var reg 1 & r_q0 $end
$var reg 1 ' r_q1 $end
$scope module u1 $end
$var reg 1 ( clk $end
$var reg 1 ) d0 $end
$var reg 1 * d1 $end
$var reg 1 + load $end
$var reg 1 , res $end
$var reg 1 - q0 $end
$var reg 1 . q1 $end
$var reg 1 / o1 $end
$var reg 1 0 o2 $end
$var reg 1 1 q0_internal $end
$var reg 1 2 q1_internal $end
$scope module i1 $end
$var reg 1 3 clk $end
$var reg 1 4 d0 $end
$var reg 1 5 d1 $end
$var reg 1 6 res $end
$var reg 1 7 q0 $end
$var reg 1 8 q1 $end
$var reg 1 9 q0_s $end
$var reg 1 : q1_s $end
$upscope $end
$scope module i0 $end
$var reg 1 ; a1 $end
$var reg 1 < a2 $end
$var reg 1 = b1 $end
$var reg 1 > b2 $end
$var reg 1 ? sel $end
$var reg 1 @ o1 $end
$var reg 1 A o2 $end
$upscope $end
$upscope $end
$upscope $end
$enddefinitions $end
#0
0!
0"
0#
0$
1%
U&
U'
0(
0)
0*
0+
1,
U-
U.
U/
U0
U1
U2
03
U4
U5
16
U7
U8
09
0:
0;
0<
U=
U>
0?
U@
UA
#2000000
0&
0'
0-
0.
01
02
07
08
0=
0>
#5000000
1!
1(
13
#6000000
0/
00
04
05
0@
0A
#10000000
0!
0(
03
#15000000
1!
1(
13
#20000000
0!
1"
0%
0(
1)
0,
03
06
1;
#24000000
0@
0A
#25000000
1!
1(
13
#30000000
0!
0(
03
#35000000
1!
1(
13
#40000000
0!
1$
0(
1+
03
1?
#43000000
1/
14
1@
0A
#45000000
1!
1(
13
19
#47000000
1&
1-
11
17
1=
#50000000
0!
0(
03
1@
0A
